{
  "albums": {
    "href": "https://api.spotify.com/v1/browse/new-releases?offset=0&limit=1",
    "items": [
      {
        "album_type": "single",
        "artists": [
          {
            "external_urls": {
              "spotify": "https://open.spotify.com/artist/6eUKZXaKkcviH0Ku9w2n3V"
            },
            "href": "https://api.spotify.com/v1/artists/6eUKZXaKkcviH0Ku9w2n3V",
            "id": "6eUKZXaKkcviH0Ku9w2n3V",
            "name": "Ed Sheeran",
            "type": "artist",
            "uri": "spotify:artist:6eUKZXaKkcviH0Ku9w2n3V"
          },
          {
            "external_urls": {
              "spotify": "https://open.spotify.com/artist/6vWDO969PvNqNYHIOW5v0m"
            },
            "href": "https://api.spotify.com/v1/artists/6vWDO969PvNqNYHIOW5v0m",
            "id": "6vWDO969PvNqNYHIOW5v0m",
            "name": "Beyoncé",
            "type": "artist",
            "uri": "spotify:artist:6vWDO969PvNqNYHIOW5v0m"
          }
        ],
        "available_markets": [
          "AD",
          "AR",
          "AT",
          "AU",
          "BE",
          "BG",
          "BO",
          "BR",
          "CA",
          "CH",
          "CL",
          "CO",
          "CR",
          "CY",
          "CZ",
          "DE",
          "DK",
          "DO",
          "EC",
          "EE",
          "ES",
          "FI",
          "FR",
          "GB",
          "GR",
          "GT",
          "HK",
          "HN",
          "HU",
          "ID",
          "IE",
          "IS",
          "IT",
          "JP",
          "LI",
          "LT",
          "LU",
          "LV",
          "MC",
          "MT",
          "MX",
          "MY",
          "NI",
          "NL",
          "NO",
          "NZ",
          "PA",
          "PE",
          "PH",
          "PL",
          "PT",
          "PY",
          "SE",
          "SG",
          "SK",
          "SV",
          "TH",
          "TR",
          "TW",
          "US",
          "UY",
          "VN"
        ],
        "external_urls": {
          "spotify": "https://open.spotify.com/album/52kvZcbEDm0v2kWZQXjuuA"
        },
        "href": "https://api.spotify.com/v1/albums/52kvZcbEDm0v2kWZQXjuuA",
        "id": "52kvZcbEDm0v2kWZQXjuuA",
        "images": [
          {
            "height": 640,
            "url": "https://i.scdn.co/image/6d27b4ab01b5f52ad8a4ed1b56422c6c7f71fcf2",
            "width": 640
          },
          {
            "height": 300,
            "url": "https://i.scdn.co/image/5659184967911d3d40656aabbbb08311ea366e9f",
            "width": 300
          },
          {
            "height": 64,
            "url": "https://i.scdn.co/image/c45fb7a706f43746e2c5c381d64a5d75b39ed72d",
            "width": 64
          }
        ],
        "name": "Perfect Duet (Ed Sheeran & Beyoncé)",
        "type": "album",
        "uri": "spotify:album:52kvZcbEDm0v2kWZQXjuuA"
      }
    ],
    "limit": 1,
    "next": "https://api.spotify.com/v1/browse/new-releases?offset=1&limit=1",
    "offset": 0,
    "previous": null,
    "total": 500
  }
}