{
    "href": "https://api.spotify.com/v1/me/tracks?offset=1&limit=5",
    "items": [
        {
            "added_at": "2014-09-19T16:00:56Z",
            "track": {
                "album": {
                    "album_type": "single",
                    "available_markets": [ "AD", "AR", "AT", "AU", "BE", "BG", "BO", "BR", "CA",
                                           "CH", "CL", "CO", "CR", "CY", "CZ", "DE", "DK", "DO",
                                           "EC", "EE", "ES", "FI", "FR", "GB", "GR", "GT", "HK",
                                           "HN", "HU", "IE", "IS", "IT", "LI", "LT", "LU", "LV",
                                           "MC", "MT", "MX", "MY", "NI", "NL", "NO", "NZ", "PA",
                                           "PE", "PH", "PL", "PT", "PY", "RO", "SE", "SG", "SI",
                                           "SK", "SV", "TR", "TW", "US", "UY" ],
                    "external_urls": {
                        "spotify": "https://open.spotify.com/album/3N5Gx8PAvoRGknd6KUiowq"
                    },
                    "href": "https://api.spotify.com/v1/albums/3N5Gx8PAvoRGknd6KUiowq",
                    "id": "3N5Gx8PAvoRGknd6KUiowq",
                    "images": [
                        {
                            "height": 640,
                            "url": "https://i.scdn.co/image/bc3e5207103d380f12c7c7bc131f0f2d8e28f07b",
                            "width": 640
                        },
                        {
                            "height": 640,
                            "url": "https://i.scdn.co/image/bc3e5207103d380f12c7c7bc131f0f2d8e28f07b",
                            "width": 640
                        },
                        {
                            "height": 64,
                            "url": "https://i.scdn.co/image/ab5a0132c20465ef7767c3434be22e7b8a1f2233",
                            "width": 64
                        }
                    ],
                    "name": "Machine It",
                    "type": "album",
                    "uri": "spotify:album:3N5Gx8PAvoRGknd6KUiowq"
                },
                "artists": [
                    {
                        "external_urls": {
                            "spotify": "https://open.spotify.com/artist/2K3t5MwIz2PtQ6w4PciTF9"
                        },
                        "href": "https://api.spotify.com/v1/artists/2K3t5MwIz2PtQ6w4PciTF9",
                        "id": "2K3t5MwIz2PtQ6w4PciTF9",
                        "name": "Sulumi",
                        "type": "artist",
                        "uri": "spotify:artist:2K3t5MwIz2PtQ6w4PciTF9"
                    }
                ],
                "available_markets": [ "AD", "AR", "AT", "AU", "BE", "BG", "BO", "BR", "CA", "CH",
                                       "CL", "CO", "CR", "CY", "CZ", "DE", "DK", "DO", "EC", "EE",
                                       "ES", "FI", "FR", "GB", "GR", "GT", "HK", "HN", "HU", "IE",
                                       "IS", "IT", "LI", "LT", "LU", "LV", "MC", "MT", "MX", "MY",
                                       "NI", "NL", "NO", "NZ", "PA", "PE", "PH", "PL", "PT", "PY",
                                       "RO", "SE", "SG", "SI", "SK", "SV", "TR", "TW", "US", "UY" ],
                "disc_number": 1,
                "duration_ms": 257706,
                "explicit": false,
                "external_ids": {
                    "isrc": "USA561069448"
                },
                "external_urls": {
                    "spotify": "https://open.spotify.com/track/13zm8XhfM4RBtQpjdqY44e"
                },
                "href": "https://api.spotify.com/v1/tracks/13zm8XhfM4RBtQpjdqY44e",
                "id": "13zm8XhfM4RBtQpjdqY44e",
                "name": "Machine It (Shirobon Remix)",
                "popularity": 26,
                "preview_url": "https://p.scdn.co/mp3-preview/064f2d5d2b7a1dc825097621425a67f6d13c78c0",
                "track_number": 3,
                "type": "track",
                "uri": "spotify:track:13zm8XhfM4RBtQpjdqY44e"
            }
        },
        {
            "added_at": "2014-09-19T16:00:56Z",
            "track": {
                "album": {
                    "album_type": "single",
                    "available_markets": [ "AD", "AR", "AT", "AU", "BE", "BG", "BO", "BR", "CA",
                                           "CH", "CL", "CO", "CR", "CY", "CZ", "DE", "DK", "DO",
                                           "EC", "EE", "ES", "FI", "FR", "GB", "GR", "GT", "HK",
                                           "HN", "HU", "IE", "IS", "IT", "LI", "LT", "LU", "LV",
                                           "MC", "MT", "MX", "MY", "NI", "NL", "NO", "NZ", "PA",
                                           "PE", "PH", "PL", "PT", "PY", "RO", "SE", "SG", "SI",
                                           "SK", "SV", "TR", "TW", "US", "UY" ],
                    "external_urls": {
                        "spotify": "https://open.spotify.com/album/3N5Gx8PAvoRGknd6KUiowq"
                    },
                    "href": "https://api.spotify.com/v1/albums/3N5Gx8PAvoRGknd6KUiowq",
                    "id": "3N5Gx8PAvoRGknd6KUiowq",
                    "images": [
                        {
                            "height": 640,
                            "url": "https://i.scdn.co/image/bc3e5207103d380f12c7c7bc131f0f2d8e28f07b",
                            "width": 640
                        },
                        {
                            "height": 640,
                            "url": "https://i.scdn.co/image/bc3e5207103d380f12c7c7bc131f0f2d8e28f07b",
                            "width": 640
                        },
                        {
                            "height": 64,
                            "url": "https://i.scdn.co/image/ab5a0132c20465ef7767c3434be22e7b8a1f2233",
                            "width": 64
                        }
                    ],
                    "name": "Machine It",
                    "type": "album",
                    "uri": "spotify:album:3N5Gx8PAvoRGknd6KUiowq"
                },
                "artists": [
                    {
                        "external_urls": {
                            "spotify": "https://open.spotify.com/artist/2K3t5MwIz2PtQ6w4PciTF9"
                        },
                        "href": "https://api.spotify.com/v1/artists/2K3t5MwIz2PtQ6w4PciTF9",
                        "id": "2K3t5MwIz2PtQ6w4PciTF9",
                        "name": "Sulumi",
                        "type": "artist",
                        "uri": "spotify:artist:2K3t5MwIz2PtQ6w4PciTF9"
                    }
                ],
                "available_markets": [ "AD", "AR", "AT", "AU", "BE", "BG", "BO", "BR", "CA", "CH",
                                       "CL", "CO", "CR", "CY", "CZ", "DE", "DK", "DO", "EC", "EE",
                                       "ES", "FI", "FR", "GB", "GR", "GT", "HK", "HN", "HU", "IE",
                                       "IS", "IT", "LI", "LT", "LU", "LV", "MC", "MT", "MX", "MY",
                                       "NI", "NL", "NO", "NZ", "PA", "PE", "PH", "PL", "PT", "PY",
                                       "RO", "SE", "SG", "SI", "SK", "SV", "TR", "TW", "US", "UY" ],
                "disc_number": 1,
                "duration_ms": 277306,
                "explicit": false,
                "external_ids": {
                    "isrc": "USA561069446"
                },
                "external_urls": {
                    "spotify": "https://open.spotify.com/track/3aBPJ9NvCpmDA56ojpYnPU"
                },
                "href": "https://api.spotify.com/v1/tracks/3aBPJ9NvCpmDA56ojpYnPU",
                "id": "3aBPJ9NvCpmDA56ojpYnPU",
                "name": "Machine It (Original Mix)",
                "popularity": 5,
                "preview_url": "https://p.scdn.co/mp3-preview/5d33a76b8ffaded4ca26f82c42a96a912a31f22e",
                "track_number": 1,
                "type": "track",
                "uri": "spotify:track:3aBPJ9NvCpmDA56ojpYnPU"
            }
        },
        {
            "added_at": "2014-09-19T16:00:56Z",
            "track": {
                "album": {
                    "album_type": "single",
                    "available_markets": [ "AD", "AR", "AT", "AU", "BE", "BG", "BO", "BR", "CA",
                                           "CH", "CL", "CO", "CR", "CY", "CZ", "DE", "DK", "DO",
                                           "EC", "EE", "ES", "FI", "FR", "GB", "GR", "GT", "HK",
                                           "HN", "HU", "IE", "IS", "IT", "LI", "LT", "LU", "LV",
                                           "MC", "MT", "MX", "MY", "NI", "NL", "NO", "NZ", "PA",
                                           "PE", "PH", "PL", "PT", "PY", "RO", "SE", "SG", "SI",
                                           "SK", "SV", "TR", "TW", "US", "UY" ],
                    "external_urls": {
                        "spotify": "https://open.spotify.com/album/3N5Gx8PAvoRGknd6KUiowq"
                    },
                    "href": "https://api.spotify.com/v1/albums/3N5Gx8PAvoRGknd6KUiowq",
                    "id": "3N5Gx8PAvoRGknd6KUiowq",
                    "images": [
                        {
                            "height": 640,
                            "url": "https://i.scdn.co/image/bc3e5207103d380f12c7c7bc131f0f2d8e28f07b",
                            "width": 640
                        },
                        {
                            "height": 640,
                            "url": "https://i.scdn.co/image/bc3e5207103d380f12c7c7bc131f0f2d8e28f07b",
                            "width": 640
                        },
                        {
                            "height": 64,
                            "url": "https://i.scdn.co/image/ab5a0132c20465ef7767c3434be22e7b8a1f2233",
                            "width": 64
                        }
                    ],
                    "name": "Machine It",
                    "type": "album",
                    "uri": "spotify:album:3N5Gx8PAvoRGknd6KUiowq"
                },
                "artists": [
                    {
                        "external_urls": {
                            "spotify": "https://open.spotify.com/artist/2K3t5MwIz2PtQ6w4PciTF9"
                        },
                        "href": "https://api.spotify.com/v1/artists/2K3t5MwIz2PtQ6w4PciTF9",
                        "id": "2K3t5MwIz2PtQ6w4PciTF9",
                        "name": "Sulumi",
                        "type": "artist",
                        "uri": "spotify:artist:2K3t5MwIz2PtQ6w4PciTF9"
                    }
                ],
                "available_markets": [ "AD", "AR", "AT", "AU", "BE", "BG", "BO", "BR", "CA", "CH",
                                       "CL", "CO", "CR", "CY", "CZ", "DE", "DK", "DO", "EC", "EE",
                                       "ES", "FI", "FR", "GB", "GR", "GT", "HK", "HN", "HU", "IE",
                                       "IS", "IT", "LI", "LT", "LU", "LV", "MC", "MT", "MX", "MY",
                                       "NI", "NL", "NO", "NZ", "PA", "PE", "PH", "PL", "PT", "PY",
                                       "RO", "SE", "SG", "SI", "SK", "SV", "TR", "TW", "US", "UY" ],
                "disc_number": 1,
                "duration_ms": 232586,
                "explicit": false,
                "external_ids": {
                    "isrc": "USA561069447"
                },
                "external_urls": {
                    "spotify": "https://open.spotify.com/track/5xFF6wNcoRwx7N3cDTgVWP"
                },
                "href": "https://api.spotify.com/v1/tracks/5xFF6wNcoRwx7N3cDTgVWP",
                "id": "5xFF6wNcoRwx7N3cDTgVWP",
                "name": "Machine It (Dubmood Remix)",
                "popularity": 19,
                "preview_url": "https://p.scdn.co/mp3-preview/ef713c859a6b1000cc203eb954df34feceaa8bfd",
                "track_number": 2,
                "type": "track",
                "uri": "spotify:track:5xFF6wNcoRwx7N3cDTgVWP"
            }
        },
        {
            "added_at": "2014-09-12T09:02:41Z",
            "track": {
                "album": {
                    "album_type": "album",
                    "available_markets": [ "AD", "AR", "AT", "AU", "BE", "BG", "BO", "BR", "CA",
                                           "CH", "CL", "CO", "CR", "CY", "CZ", "DE", "DK", "DO",
                                           "EC", "EE", "ES", "FI", "FR", "GB", "GR", "GT", "HK",
                                           "HN", "HU", "IE", "IS", "IT", "LI", "LT", "LU", "LV",
                                           "MC", "MT", "MX", "MY", "NI", "NL", "NO", "NZ", "PA",
                                           "PE", "PH", "PL", "PT", "PY", "RO", "SE", "SG", "SI",
                                           "SK", "SV", "TR", "TW", "US", "UY" ],
                    "external_urls": {
                        "spotify": "https://open.spotify.com/album/1OuaG20QSN04fR5m5hLScO"
                    },
                    "href": "https://api.spotify.com/v1/albums/1OuaG20QSN04fR5m5hLScO",
                    "id": "1OuaG20QSN04fR5m5hLScO",
                    "images": [
                        {
                            "height": 640,
                            "url": "https://i.scdn.co/image/6210693fa590dbf7a263dec33dbb98c63e041248",
                            "width": 640
                        },
                        {
                            "height": 300,
                            "url": "https://i.scdn.co/image/673f32e3f1dcaf937d887148c38893f0e2ee5fef",
                            "width": 300
                        },
                        {
                            "height": 64,
                            "url": "https://i.scdn.co/image/233e6d837ed232577e98a8473de3bcfd75064031",
                            "width": 64
                        }
                    ],
                    "name": "You Are Here",
                    "type": "album",
                    "uri": "spotify:album:1OuaG20QSN04fR5m5hLScO"
                },
                "artists": [
                    {
                        "external_urls": {
                            "spotify": "https://open.spotify.com/artist/0FmyWp3oYPdFBsDznNObea"
                        },
                        "href": "https://api.spotify.com/v1/artists/0FmyWp3oYPdFBsDznNObea",
                        "id": "0FmyWp3oYPdFBsDznNObea",
                        "name": "Brainpool",
                        "type": "artist",
                        "uri": "spotify:artist:0FmyWp3oYPdFBsDznNObea"
                    }
                ],
                "available_markets": [ "AD", "AR", "AT", "AU", "BE", "BG", "BO", "BR", "CA", "CH",
                                       "CL", "CO", "CR", "CY", "CZ", "DE", "DK", "DO", "EC", "EE",
                                       "ES", "FI", "FR", "GB", "GR", "GT", "HK", "HN", "HU", "IE",
                                       "IS", "IT", "LI", "LT", "LU", "LV", "MC", "MT", "MX", "MY",
                                       "NI", "NL", "NO", "NZ", "PA", "PE", "PH", "PL", "PT", "PY",
                                       "RO", "SE", "SG", "SI", "SK", "SV", "TR", "TW", "US", "UY" ],
                "disc_number": 1,
                "duration_ms": 239466,
                "explicit": false,
                "external_ids": {
                    "isrc": "ushm90582979"
                },
                "external_urls": {
                    "spotify": "https://open.spotify.com/track/07au2Lf5BwMmh80g6XvAhJ"
                },
                "href": "https://api.spotify.com/v1/tracks/07au2Lf5BwMmh80g6XvAhJ",
                "id": "07au2Lf5BwMmh80g6XvAhJ",
                "name": "Live - Transmission",
                "popularity": 7,
                "preview_url": "https://p.scdn.co/mp3-preview/3e8d6f3c20bd61359639a05cb11950e6515ea7b3",
                "track_number": 2,
                "type": "track",
                "uri": "spotify:track:07au2Lf5BwMmh80g6XvAhJ"
            }
        },
        {
            "added_at": "2014-09-10T20:39:14Z",
            "track": {
                "album": {
                    "album_type": "single",
                    "available_markets": [ "AD", "AR", "AT", "AU", "BE", "BG", "BO", "BR", "CA",
                                           "CH", "CL", "CO", "CR", "CY", "CZ", "DE", "DK", "DO",
                                           "EC", "EE", "ES", "FI", "FR", "GB", "GR", "GT", "HK",
                                           "HN", "HU", "IE", "IS", "IT", "LI", "LT", "LU", "LV",
                                           "MC", "MT", "MX", "MY", "NI", "NL", "NO", "NZ", "PA",
                                           "PE", "PH", "PL", "PT", "PY", "RO", "SE", "SG", "SI",
                                           "SK", "SV", "TR", "TW", "US", "UY" ],
                    "external_urls": {
                        "spotify": "https://open.spotify.com/album/2ezlZ9lyDu83fdpVlaGJ0W"
                    },
                    "href": "https://api.spotify.com/v1/albums/2ezlZ9lyDu83fdpVlaGJ0W",
                    "id": "2ezlZ9lyDu83fdpVlaGJ0W",
                    "images": [
                        {
                            "height": 640,
                            "url": "https://i.scdn.co/image/d8204e295af6a115620423a84fcbb9f56cf8c0a9",
                            "width": 640
                        },
                        {
                            "height": 300,
                            "url": "https://i.scdn.co/image/dc514e76f7941060d0d94e34bfa374bad61c47a9",
                            "width": 300
                        },
                        {
                            "height": 64,
                            "url": "https://i.scdn.co/image/e7faba0a62ec874554873edf066b6d8b50b104f8",
                            "width": 64
                        }
                    ],
                    "name": "SK2550",
                    "type": "album",
                    "uri": "spotify:album:2ezlZ9lyDu83fdpVlaGJ0W"
                },
                "artists": [
                    {
                        "external_urls": {
                            "spotify": "https://open.spotify.com/artist/3Su4UJOvreLIyVfbWXndP6"
                        },
                        "href": "https://api.spotify.com/v1/artists/3Su4UJOvreLIyVfbWXndP6",
                        "id": "3Su4UJOvreLIyVfbWXndP6",
                        "name": "asmitter",
                        "type": "artist",
                        "uri": "spotify:artist:3Su4UJOvreLIyVfbWXndP6"
                    }
                ],
                "available_markets": [ "AD", "AR", "AT", "AU", "BE", "BG", "BO", "BR", "CA", "CH",
                                       "CL", "CO", "CR", "CY", "CZ", "DE", "DK", "DO", "EC", "EE",
                                       "ES", "FI", "FR", "GB", "GR", "GT", "HK", "HN", "HU", "IE",
                                       "IS", "IT", "LI", "LT", "LU", "LV", "MC", "MT", "MX", "MY",
                                       "NI", "NL", "NO", "NZ", "PA", "PE", "PH", "PL", "PT", "PY",
                                       "RO", "SE", "SG", "SI", "SK", "SV", "TR", "TW", "US", "UY" ],
                "disc_number": 1,
                "duration_ms": 184346,
                "explicit": false,
                "external_ids": { },
                "external_urls": {
                    "spotify": "https://open.spotify.com/track/0d4IzR6lwNnLKNjAsQTmQ8"
                },
                "href": "https://api.spotify.com/v1/tracks/0d4IzR6lwNnLKNjAsQTmQ8",
                "id": "0d4IzR6lwNnLKNjAsQTmQ8",
                "name": "SK2550",
                "popularity": 0,
                "preview_url": "https://p.scdn.co/mp3-preview/e58541d5658d65d2835f86bf2162a5c08a400bf8",
                "track_number": 1,
                "type": "track",
                "uri": "spotify:track:0d4IzR6lwNnLKNjAsQTmQ8"
            }
        }
    ],
    "limit": 5,
    "next": "https://api.spotify.com/v1/me/tracks?offset=6&limit=5",
    "offset": 1,
    "previous": "https://api.spotify.com/v1/me/tracks?offset=0&limit=5",
    "total": 567
}