{
  "categories": {
    "href": "https://api.spotify.com/v1/browse/categories?offset=0&limit=2",
    "items": [
      {
        "href": "https://api.spotify.com/v1/browse/categories/toplists",
        "icons": [
          {
            "height": 275,
            "url": "https://datsnxq1rwndn.cloudfront.net/media/derived/toplists_11160599e6a04ac5d6132b366af6f729_0_0_275_275.jpg",
            "width": 275
          }
        ],
        "id": "toplists",
        "name": "Top Lists"
      },
      {
        "href": "https://api.spotify.com/v1/browse/categories/mood",
        "icons": [
          {
            "height": 274,
            "url": "https://datsnxq1rwndn.cloudfront.net/media/original/mood-274x274_976986a31ac8c49794cbdc35c3d12afe_274x274.jpg",
            "width": 274
          }
        ],
        "id": "mood",
        "name": "Mood"
      }
    ],
    "limit": 2,
    "next": "https://api.spotify.com/v1/browse/categories?offset=2&limit=2",
    "offset": 0,
    "previous": null,
    "total": 31
  }
}
