{
  "items": [
    {
      "album": {
        "album_type": "ALBUM",
        "external_urls": {
          "spotify": "https://open.spotify.com/album/3luHJEPw434tvNbme3SP8M"
        },
        "href": "https://api.spotify.com/v1/albums/3luHJEPw434tvNbme3SP8M",
        "id": "3luHJEPw434tvNbme3SP8M",
        "images": [
          {
            "height": 640,
            "url": "https://i.scdn.co/image/ccdac9e430efeb02467f94050620341f4c1f83c4",
            "width": 640
          },
          {
            "height": 300,
            "url": "https://i.scdn.co/image/1b821cf90d21ab3daad0fd6410b459b842330bd0",
            "width": 300
          },
          {
            "height": 64,
            "url": "https://i.scdn.co/image/ce7f5238d2bdab39ad538e1f4da29b6195a51898",
            "width": 64
          }
        ],
        "name": "Jung Brutal Gutaussehend 3",
        "type": "album",
        "uri": "spotify:album:3luHJEPw434tvNbme3SP8M"
      },
      "artists": [
        {
          "external_urls": {
            "spotify": "https://open.spotify.com/artist/6gto7HVNhu4ARE3P3g8Y5Y"
          },
          "href": "https://api.spotify.com/v1/artists/6gto7HVNhu4ARE3P3g8Y5Y",
          "id": "6gto7HVNhu4ARE3P3g8Y5Y",
          "name": "Kollegah",
          "type": "artist",
          "uri": "spotify:artist:6gto7HVNhu4ARE3P3g8Y5Y"
        },
        {
          "external_urls": {
            "spotify": "https://open.spotify.com/artist/2JwyRtuXf2l6sTnSnGVIa1"
          },
          "href": "https://api.spotify.com/v1/artists/2JwyRtuXf2l6sTnSnGVIa1",
          "id": "2JwyRtuXf2l6sTnSnGVIa1",
          "name": "Farid Bang",
          "type": "artist",
          "uri": "spotify:artist:2JwyRtuXf2l6sTnSnGVIa1"
        }
      ],
      "disc_number": 1,
      "duration_ms": 183040,
      "explicit": true,
      "external_ids": {
        "isrc": "DELV41702367"
      },
      "external_urls": {
        "spotify": "https://open.spotify.com/track/1Rn0dmvcmrkM16ImY8TObH"
      },
      "href": "https://api.spotify.com/v1/tracks/1Rn0dmvcmrkM16ImY8TObH",
      "id": "1Rn0dmvcmrkM16ImY8TObH",
      "is_playable": true,
      "name": "Studiogangster",
      "popularity": 68,
      "preview_url": "https://p.scdn.co/mp3-preview/ff0ca7386a6c7f205c6f16aac9ef2301dc4b39b8",
      "track_number": 5,
      "type": "track",
      "uri": "spotify:track:1Rn0dmvcmrkM16ImY8TObH"
    },
    {
      "album": {
        "album_type": "ALBUM",
        "external_urls": {
          "spotify": "https://open.spotify.com/album/7bchrFZj39dzXln8iE6tBE"
        },
        "href": "https://api.spotify.com/v1/albums/7bchrFZj39dzXln8iE6tBE",
        "id": "7bchrFZj39dzXln8iE6tBE",
        "images": [
          {
            "height": 640,
            "url": "https://i.scdn.co/image/9c0d182dd3364f70831c926fc1d5d11e68b50f51",
            "width": 640
          },
          {
            "height": 300,
            "url": "https://i.scdn.co/image/ed38596d8ed2b3fdf2ab9e823df4c5f29758d42f",
            "width": 300
          },
          {
            "height": 64,
            "url": "https://i.scdn.co/image/bcf7669e90a98e95f5be7317450f03c045368096",
            "width": 64
          }
        ],
        "name": "More Than You Know",
        "type": "album",
        "uri": "spotify:album:7bchrFZj39dzXln8iE6tBE"
      },
      "artists": [
        {
          "external_urls": {
            "spotify": "https://open.spotify.com/artist/2XnBwblw31dfGnspMIwgWz"
          },
          "href": "https://api.spotify.com/v1/artists/2XnBwblw31dfGnspMIwgWz",
          "id": "2XnBwblw31dfGnspMIwgWz",
          "name": "Axwell /\\ Ingrosso",
          "type": "artist",
          "uri": "spotify:artist:2XnBwblw31dfGnspMIwgWz"
        }
      ],
      "disc_number": 1,
      "duration_ms": 203000,
      "explicit": false,
      "external_ids": {
        "isrc": "GBUM71701735"
      },
      "external_urls": {
        "spotify": "https://open.spotify.com/track/71bBFbfn2OBK5QwUJSLS44"
      },
      "href": "https://api.spotify.com/v1/tracks/71bBFbfn2OBK5QwUJSLS44",
      "id": "71bBFbfn2OBK5QwUJSLS44",
      "is_playable": true,
      "linked_from": {
        "external_urls": {
          "spotify": "https://open.spotify.com/track/4q8PHoRsPUB52LFylX8Ulz"
        },
        "href": "https://api.spotify.com/v1/tracks/4q8PHoRsPUB52LFylX8Ulz",
        "id": "4q8PHoRsPUB52LFylX8Ulz",
        "type": "track",
        "uri": "spotify:track:4q8PHoRsPUB52LFylX8Ulz"
      },
      "name": "More Than You Know",
      "popularity": 85,
      "preview_url": "https://p.scdn.co/mp3-preview/a8c9419cf7e46b58647420bb511839aaf5e9e8be",
      "track_number": 1,
      "type": "track",
      "uri": "spotify:track:71bBFbfn2OBK5QwUJSLS44"
    },
    {
      "album": {
        "album_type": "SINGLE",
        "external_urls": {
          "spotify": "https://open.spotify.com/album/7yZ7yeYUW78h6tLEtfA51f"
        },
        "href": "https://api.spotify.com/v1/albums/7yZ7yeYUW78h6tLEtfA51f",
        "id": "7yZ7yeYUW78h6tLEtfA51f",
        "images": [
          {
            "height": 600,
            "url": "https://i.scdn.co/image/36d362087d55cb808e2cbcf24fea63afb0fb3daa",
            "width": 600
          },
          {
            "height": 300,
            "url": "https://i.scdn.co/image/d802f1ccb4a6c5277a3e2adc6ea9c30c6f348626",
            "width": 300
          },
          {
            "height": 64,
            "url": "https://i.scdn.co/image/df1b7f45b2d894f25dbe90a8792656a90c95bf94",
            "width": 64
          }
        ],
        "name": "New World",
        "type": "album",
        "uri": "spotify:album:7yZ7yeYUW78h6tLEtfA51f"
      },
      "artists": [
        {
          "external_urls": {
            "spotify": "https://open.spotify.com/artist/6EcmmMu76jbTsFhPs3iEfs"
          },
          "href": "https://api.spotify.com/v1/artists/6EcmmMu76jbTsFhPs3iEfs",
          "id": "6EcmmMu76jbTsFhPs3iEfs",
          "name": "Mykket Morton",
          "type": "artist",
          "uri": "spotify:artist:6EcmmMu76jbTsFhPs3iEfs"
        }
      ],
      "disc_number": 1,
      "duration_ms": 257626,
      "explicit": false,
      "external_ids": {
        "isrc": "DEVK51600009"
      },
      "external_urls": {
        "spotify": "https://open.spotify.com/track/0gdt7dB9T58MzldUxy6Hu5"
      },
      "href": "https://api.spotify.com/v1/tracks/0gdt7dB9T58MzldUxy6Hu5",
      "id": "0gdt7dB9T58MzldUxy6Hu5",
      "is_playable": true,
      "name": "Piece of Art",
      "popularity": 12,
      "preview_url": "https://p.scdn.co/mp3-preview/eb196753c6b32743d5969d7c999f85fa0eac844c",
      "track_number": 9,
      "type": "track",
      "uri": "spotify:track:0gdt7dB9T58MzldUxy6Hu5"
    },
    {
      "album": {
        "album_type": "ALBUM",
        "external_urls": {
          "spotify": "https://open.spotify.com/album/4CiCpqzAwNdRCJceEDUq39"
        },
        "href": "https://api.spotify.com/v1/albums/4CiCpqzAwNdRCJceEDUq39",
        "id": "4CiCpqzAwNdRCJceEDUq39",
        "images": [
          {
            "height": 640,
            "url": "https://i.scdn.co/image/9040e4c7572ed037e3d044d7f35d41260c81c205",
            "width": 640
          },
          {
            "height": 300,
            "url": "https://i.scdn.co/image/e28f43f3e2bcc38bef447d772d2ae6787716bf07",
            "width": 300
          },
          {
            "height": 64,
            "url": "https://i.scdn.co/image/0f636c7e4762e6fa4be7d3fab8f30d060bda001d",
            "width": 64
          }
        ],
        "name": "Gouldian Finch #02",
        "type": "album",
        "uri": "spotify:album:4CiCpqzAwNdRCJceEDUq39"
      },
      "artists": [
        {
          "external_urls": {
            "spotify": "https://open.spotify.com/artist/0jNDKefhfSbLR9sFvcPLHo"
          },
          "href": "https://api.spotify.com/v1/artists/0jNDKefhfSbLR9sFvcPLHo",
          "id": "0jNDKefhfSbLR9sFvcPLHo",
          "name": "San Holo",
          "type": "artist",
          "uri": "spotify:artist:0jNDKefhfSbLR9sFvcPLHo"
        },
        {
          "external_urls": {
            "spotify": "https://open.spotify.com/artist/4B7EVtenNIwOUxmQ5o5GNv"
          },
          "href": "https://api.spotify.com/v1/artists/4B7EVtenNIwOUxmQ5o5GNv",
          "id": "4B7EVtenNIwOUxmQ5o5GNv",
          "name": "Eastghost",
          "type": "artist",
          "uri": "spotify:artist:4B7EVtenNIwOUxmQ5o5GNv"
        },
        {
          "external_urls": {
            "spotify": "https://open.spotify.com/artist/0BXba0ldes9O3QN8JPi1sX"
          },
          "href": "https://api.spotify.com/v1/artists/0BXba0ldes9O3QN8JPi1sX",
          "id": "0BXba0ldes9O3QN8JPi1sX",
          "name": "Analogue Dear",
          "type": "artist",
          "uri": "spotify:artist:0BXba0ldes9O3QN8JPi1sX"
        },
        {
          "external_urls": {
            "spotify": "https://open.spotify.com/artist/3XFcu2NnGWceLNdxRCfYH3"
          },
          "href": "https://api.spotify.com/v1/artists/3XFcu2NnGWceLNdxRCfYH3",
          "id": "3XFcu2NnGWceLNdxRCfYH3",
          "name": "Taska Black",
          "type": "artist",
          "uri": "spotify:artist:3XFcu2NnGWceLNdxRCfYH3"
        },
        {
          "external_urls": {
            "spotify": "https://open.spotify.com/artist/0u18Cq5stIQLUoIaULzDmA"
          },
          "href": "https://api.spotify.com/v1/artists/0u18Cq5stIQLUoIaULzDmA",
          "id": "0u18Cq5stIQLUoIaULzDmA",
          "name": "DROELOE",
          "type": "artist",
          "uri": "spotify:artist:0u18Cq5stIQLUoIaULzDmA"
        },
        {
          "external_urls": {
            "spotify": "https://open.spotify.com/artist/0kjh83tyqWSJPWaZatIzuy"
          },
          "href": "https://api.spotify.com/v1/artists/0kjh83tyqWSJPWaZatIzuy",
          "id": "0kjh83tyqWSJPWaZatIzuy",
          "name": "Losi",
          "type": "artist",
          "uri": "spotify:artist:0kjh83tyqWSJPWaZatIzuy"
        },
        {
          "external_urls": {
            "spotify": "https://open.spotify.com/artist/5gSlfhS3FhzfAruPQh0Wro"
          },
          "href": "https://api.spotify.com/v1/artists/5gSlfhS3FhzfAruPQh0Wro",
          "id": "5gSlfhS3FhzfAruPQh0Wro",
          "name": "ILIVEHERE.",
          "type": "artist",
          "uri": "spotify:artist:5gSlfhS3FhzfAruPQh0Wro"
        },
        {
          "external_urls": {
            "spotify": "https://open.spotify.com/artist/63cYZFLRnmgGOEVGvDjJs7"
          },
          "href": "https://api.spotify.com/v1/artists/63cYZFLRnmgGOEVGvDjJs7",
          "id": "63cYZFLRnmgGOEVGvDjJs7",
          "name": "GOSLO",
          "type": "artist",
          "uri": "spotify:artist:63cYZFLRnmgGOEVGvDjJs7"
        }
      ],
      "disc_number": 1,
      "duration_ms": 372728,
      "explicit": false,
      "external_ids": {
        "isrc": "NLRD51632087"
      },
      "external_urls": {
        "spotify": "https://open.spotify.com/track/2Z3VSZWHJ7dxGIfhxv7dFD"
      },
      "href": "https://api.spotify.com/v1/tracks/2Z3VSZWHJ7dxGIfhxv7dFD",
      "id": "2Z3VSZWHJ7dxGIfhxv7dFD",
      "is_playable": true,
      "name": "If Only (Mega Collab)",
      "popularity": 46,
      "preview_url": "https://p.scdn.co/mp3-preview/3629befe282bb7ead054f0bcd5e8186fbcbb5cd2",
      "track_number": 22,
      "type": "track",
      "uri": "spotify:track:2Z3VSZWHJ7dxGIfhxv7dFD"
    },
    {
      "album": {
        "album_type": "SINGLE",
        "external_urls": {
          "spotify": "https://open.spotify.com/album/65wFooaReDlx2R70m1DN7J"
        },
        "href": "https://api.spotify.com/v1/albums/65wFooaReDlx2R70m1DN7J",
        "id": "65wFooaReDlx2R70m1DN7J",
        "images": [
          {
            "height": 640,
            "url": "https://i.scdn.co/image/ff96f6d41a39b40736231759d96b5651f07597f1",
            "width": 640
          },
          {
            "height": 300,
            "url": "https://i.scdn.co/image/b4e78b43d7fd35015e84b37128ceab6ec54b38dc",
            "width": 300
          },
          {
            "height": 64,
            "url": "https://i.scdn.co/image/908ffab8e26a8c878f13adc19f5fdb88691071a8",
            "width": 64
          }
        ],
        "name": "Man's Not Hot",
        "type": "album",
        "uri": "spotify:album:65wFooaReDlx2R70m1DN7J"
      },
      "artists": [
        {
          "external_urls": {
            "spotify": "https://open.spotify.com/artist/7mnAzEmgquhrVtGob81SmO"
          },
          "href": "https://api.spotify.com/v1/artists/7mnAzEmgquhrVtGob81SmO",
          "id": "7mnAzEmgquhrVtGob81SmO",
          "name": "Big Shaq",
          "type": "artist",
          "uri": "spotify:artist:7mnAzEmgquhrVtGob81SmO"
        }
      ],
      "disc_number": 1,
      "duration_ms": 186026,
      "explicit": false,
      "external_ids": {
        "isrc": "GBUM71705147"
      },
      "external_urls": {
        "spotify": "https://open.spotify.com/track/2nUJvBO87SkxCViQsLc9Zr"
      },
      "href": "https://api.spotify.com/v1/tracks/2nUJvBO87SkxCViQsLc9Zr",
      "id": "2nUJvBO87SkxCViQsLc9Zr",
      "is_playable": true,
      "name": "Man's Not Hot",
      "popularity": 89,
      "preview_url": "https://p.scdn.co/mp3-preview/cd4422bb90e89f1268a95cc62d1597e4c10e62fd",
      "track_number": 1,
      "type": "track",
      "uri": "spotify:track:2nUJvBO87SkxCViQsLc9Zr"
    },
    {
      "album": {
        "album_type": "ALBUM",
        "external_urls": {
          "spotify": "https://open.spotify.com/album/4c2p3TdN7NcQfCXyueCNnC"
        },
        "href": "https://api.spotify.com/v1/albums/4c2p3TdN7NcQfCXyueCNnC",
        "id": "4c2p3TdN7NcQfCXyueCNnC",
        "images": [
          {
            "height": 640,
            "url": "https://i.scdn.co/image/6fe3712b430fc0ff32e06b355014324a481f7a9c",
            "width": 640
          },
          {
            "height": 300,
            "url": "https://i.scdn.co/image/c1c6a9a2ac434944f64adf3c7f197460791c872a",
            "width": 300
          },
          {
            "height": 64,
            "url": "https://i.scdn.co/image/af08c5eb87e1acd9b95a01fdc3fe207c3b6559c2",
            "width": 64
          }
        ],
        "name": "Jungle Rules",
        "type": "album",
        "uri": "spotify:album:4c2p3TdN7NcQfCXyueCNnC"
      },
      "artists": [
        {
          "external_urls": {
            "spotify": "https://open.spotify.com/artist/6vXTefBL93Dj5IqAWq6OTv"
          },
          "href": "https://api.spotify.com/v1/artists/6vXTefBL93Dj5IqAWq6OTv",
          "id": "6vXTefBL93Dj5IqAWq6OTv",
          "name": "French Montana",
          "type": "artist",
          "uri": "spotify:artist:6vXTefBL93Dj5IqAWq6OTv"
        },
        {
          "external_urls": {
            "spotify": "https://open.spotify.com/artist/1zNqQNIdeOUZHb8zbZRFMX"
          },
          "href": "https://api.spotify.com/v1/artists/1zNqQNIdeOUZHb8zbZRFMX",
          "id": "1zNqQNIdeOUZHb8zbZRFMX",
          "name": "Swae Lee",
          "type": "artist",
          "uri": "spotify:artist:1zNqQNIdeOUZHb8zbZRFMX"
        }
      ],
      "disc_number": 1,
      "duration_ms": 233901,
      "explicit": true,
      "external_ids": {
        "isrc": "USSM11703478"
      },
      "external_urls": {
        "spotify": "https://open.spotify.com/track/3B54sVLJ402zGa6Xm4YGNe"
      },
      "href": "https://api.spotify.com/v1/tracks/3B54sVLJ402zGa6Xm4YGNe",
      "id": "3B54sVLJ402zGa6Xm4YGNe",
      "is_playable": true,
      "name": "Unforgettable",
      "popularity": 93,
      "preview_url": "https://p.scdn.co/mp3-preview/3814de3ede7445566a5b176bb23120af44da62d8",
      "track_number": 2,
      "type": "track",
      "uri": "spotify:track:3B54sVLJ402zGa6Xm4YGNe"
    },
    {
      "album": {
        "album_type": "COMPILATION",
        "external_urls": {
          "spotify": "https://open.spotify.com/album/17LsE8qErVS4EpUfhkma4H"
        },
        "href": "https://api.spotify.com/v1/albums/17LsE8qErVS4EpUfhkma4H",
        "id": "17LsE8qErVS4EpUfhkma4H",
        "images": [
          {
            "height": 640,
            "url": "https://i.scdn.co/image/38bbe1a42bb5f47f5a133a0f1564071ad4f8f4b6",
            "width": 640
          },
          {
            "height": 300,
            "url": "https://i.scdn.co/image/b24f6b0c27c5ef04482d81a66c1cd949eba9379f",
            "width": 300
          },
          {
            "height": 64,
            "url": "https://i.scdn.co/image/ed31c9b3f0dcf23aca4ec4b1642c1287facdcb53",
            "width": 64
          }
        ],
        "name": "70 80 90 Remixes",
        "type": "album",
        "uri": "spotify:album:17LsE8qErVS4EpUfhkma4H"
      },
      "artists": [
        {
          "external_urls": {
            "spotify": "https://open.spotify.com/artist/5eIqLsdpugQTx2ZLMwHne2"
          },
          "href": "https://api.spotify.com/v1/artists/5eIqLsdpugQTx2ZLMwHne2",
          "id": "5eIqLsdpugQTx2ZLMwHne2",
          "name": "Plastic Hairs",
          "type": "artist",
          "uri": "spotify:artist:5eIqLsdpugQTx2ZLMwHne2"
        }
      ],
      "disc_number": 1,
      "duration_ms": 189250,
      "explicit": false,
      "external_ids": {
        "isrc": "ITC941402609"
      },
      "external_urls": {
        "spotify": "https://open.spotify.com/track/3CLhRRLxzqeVGoOguw83Zd"
      },
      "href": "https://api.spotify.com/v1/tracks/3CLhRRLxzqeVGoOguw83Zd",
      "id": "3CLhRRLxzqeVGoOguw83Zd",
      "is_playable": true,
      "name": "Ymca - Radio Edit",
      "popularity": 18,
      "preview_url": "https://p.scdn.co/mp3-preview/9a26efb260ecfff78c6ee88ede24491704af8a49",
      "track_number": 18,
      "type": "track",
      "uri": "spotify:track:3CLhRRLxzqeVGoOguw83Zd"
    },
    {
      "album": {
        "album_type": "SINGLE",
        "external_urls": {
          "spotify": "https://open.spotify.com/album/66PtONhrkMfzAO3smdCGsP"
        },
        "href": "https://api.spotify.com/v1/albums/66PtONhrkMfzAO3smdCGsP",
        "id": "66PtONhrkMfzAO3smdCGsP",
        "images": [
          {
            "height": 640,
            "url": "https://i.scdn.co/image/d681a4b5253bc55fefb87e26adce14117571ffcd",
            "width": 640
          },
          {
            "height": 300,
            "url": "https://i.scdn.co/image/63a39aac5efd2e835b6d3bc04455d173b9658037",
            "width": 300
          },
          {
            "height": 64,
            "url": "https://i.scdn.co/image/7e3b8aa4f9907adfeb6d4834e2c7be60e3bb93db",
            "width": 64
          }
        ],
        "name": "Lines of the Broken",
        "type": "album",
        "uri": "spotify:album:66PtONhrkMfzAO3smdCGsP"
      },
      "artists": [
        {
          "external_urls": {
            "spotify": "https://open.spotify.com/artist/0u18Cq5stIQLUoIaULzDmA"
          },
          "href": "https://api.spotify.com/v1/artists/0u18Cq5stIQLUoIaULzDmA",
          "id": "0u18Cq5stIQLUoIaULzDmA",
          "name": "DROELOE",
          "type": "artist",
          "uri": "spotify:artist:0u18Cq5stIQLUoIaULzDmA"
        },
        {
          "external_urls": {
            "spotify": "https://open.spotify.com/artist/0jNDKefhfSbLR9sFvcPLHo"
          },
          "href": "https://api.spotify.com/v1/artists/0jNDKefhfSbLR9sFvcPLHo",
          "id": "0jNDKefhfSbLR9sFvcPLHo",
          "name": "San Holo",
          "type": "artist",
          "uri": "spotify:artist:0jNDKefhfSbLR9sFvcPLHo"
        },
        {
          "external_urls": {
            "spotify": "https://open.spotify.com/artist/7HPVAGjCVDzP7xcNrkwgxL"
          },
          "href": "https://api.spotify.com/v1/artists/7HPVAGjCVDzP7xcNrkwgxL",
          "id": "7HPVAGjCVDzP7xcNrkwgxL",
          "name": "CUT_",
          "type": "artist",
          "uri": "spotify:artist:7HPVAGjCVDzP7xcNrkwgxL"
        }
      ],
      "disc_number": 1,
      "duration_ms": 220800,
      "explicit": false,
      "external_ids": {
        "isrc": "NLRD51632011"
      },
      "external_urls": {
        "spotify": "https://open.spotify.com/track/4NvDs1kRKYdR5jacOH6aCC"
      },
      "href": "https://api.spotify.com/v1/tracks/4NvDs1kRKYdR5jacOH6aCC",
      "id": "4NvDs1kRKYdR5jacOH6aCC",
      "is_playable": true,
      "name": "Lines of the Broken",
      "popularity": 66,
      "preview_url": "https://p.scdn.co/mp3-preview/33eef6ce33a3ab44c39087e01778f11016ed9f52",
      "track_number": 1,
      "type": "track",
      "uri": "spotify:track:4NvDs1kRKYdR5jacOH6aCC"
    },
    {
      "album": {
        "album_type": "SINGLE",
        "external_urls": {
          "spotify": "https://open.spotify.com/album/7yZ7yeYUW78h6tLEtfA51f"
        },
        "href": "https://api.spotify.com/v1/albums/7yZ7yeYUW78h6tLEtfA51f",
        "id": "7yZ7yeYUW78h6tLEtfA51f",
        "images": [
          {
            "height": 600,
            "url": "https://i.scdn.co/image/36d362087d55cb808e2cbcf24fea63afb0fb3daa",
            "width": 600
          },
          {
            "height": 300,
            "url": "https://i.scdn.co/image/d802f1ccb4a6c5277a3e2adc6ea9c30c6f348626",
            "width": 300
          },
          {
            "height": 64,
            "url": "https://i.scdn.co/image/df1b7f45b2d894f25dbe90a8792656a90c95bf94",
            "width": 64
          }
        ],
        "name": "New World",
        "type": "album",
        "uri": "spotify:album:7yZ7yeYUW78h6tLEtfA51f"
      },
      "artists": [
        {
          "external_urls": {
            "spotify": "https://open.spotify.com/artist/6EcmmMu76jbTsFhPs3iEfs"
          },
          "href": "https://api.spotify.com/v1/artists/6EcmmMu76jbTsFhPs3iEfs",
          "id": "6EcmmMu76jbTsFhPs3iEfs",
          "name": "Mykket Morton",
          "type": "artist",
          "uri": "spotify:artist:6EcmmMu76jbTsFhPs3iEfs"
        }
      ],
      "disc_number": 1,
      "duration_ms": 189066,
      "explicit": false,
      "external_ids": {
        "isrc": "DEVK51600002"
      },
      "external_urls": {
        "spotify": "https://open.spotify.com/track/6ZaTpzmCnQS5UKpxnYKfrb"
      },
      "href": "https://api.spotify.com/v1/tracks/6ZaTpzmCnQS5UKpxnYKfrb",
      "id": "6ZaTpzmCnQS5UKpxnYKfrb",
      "is_playable": true,
      "name": "Go",
      "popularity": 18,
      "preview_url": "https://p.scdn.co/mp3-preview/60961ab5181360af0f0e68fb57b8a4de276d155e",
      "track_number": 2,
      "type": "track",
      "uri": "spotify:track:6ZaTpzmCnQS5UKpxnYKfrb"
    },
    {
      "album": {
        "album_type": "SINGLE",
        "external_urls": {
          "spotify": "https://open.spotify.com/album/1hG3WNdozkGnQAOmzTdDZ4"
        },
        "href": "https://api.spotify.com/v1/albums/1hG3WNdozkGnQAOmzTdDZ4",
        "id": "1hG3WNdozkGnQAOmzTdDZ4",
        "images": [
          {
            "height": 640,
            "url": "https://i.scdn.co/image/2b9f2a0a647b710d3e791293d3cb45ee6ea33d9d",
            "width": 640
          },
          {
            "height": 300,
            "url": "https://i.scdn.co/image/967e4ab2eba1d5b8617af09dfd4e0638242ed161",
            "width": 300
          },
          {
            "height": 64,
            "url": "https://i.scdn.co/image/abef1e26530bd2feca1644f2ff32abe677fd43ee",
            "width": 64
          }
        ],
        "name": "Beautiful Heartbeat",
        "type": "album",
        "uri": "spotify:album:1hG3WNdozkGnQAOmzTdDZ4"
      },
      "artists": [
        {
          "external_urls": {
            "spotify": "https://open.spotify.com/artist/19HFRWmRCl27kTk6LeqAO8"
          },
          "href": "https://api.spotify.com/v1/artists/19HFRWmRCl27kTk6LeqAO8",
          "id": "19HFRWmRCl27kTk6LeqAO8",
          "name": "MORTEN",
          "type": "artist",
          "uri": "spotify:artist:19HFRWmRCl27kTk6LeqAO8"
        },
        {
          "external_urls": {
            "spotify": "https://open.spotify.com/artist/5vuIOnOp6NI06rjLgTpYiY"
          },
          "href": "https://api.spotify.com/v1/artists/5vuIOnOp6NI06rjLgTpYiY",
          "id": "5vuIOnOp6NI06rjLgTpYiY",
          "name": "Frida Sundemo",
          "type": "artist",
          "uri": "spotify:artist:5vuIOnOp6NI06rjLgTpYiY"
        },
        {
          "external_urls": {
            "spotify": "https://open.spotify.com/artist/6VD4UEUPvtsemqD3mmTqCR"
          },
          "href": "https://api.spotify.com/v1/artists/6VD4UEUPvtsemqD3mmTqCR",
          "id": "6VD4UEUPvtsemqD3mmTqCR",
          "name": "Deorro",
          "type": "artist",
          "uri": "spotify:artist:6VD4UEUPvtsemqD3mmTqCR"
        }
      ],
      "disc_number": 1,
      "duration_ms": 275342,
      "explicit": false,
      "external_ids": {
        "isrc": "CHB701600004"
      },
      "external_urls": {
        "spotify": "https://open.spotify.com/track/7IQlAvN8vNQb6nL5mjNQSC"
      },
      "href": "https://api.spotify.com/v1/tracks/7IQlAvN8vNQb6nL5mjNQSC",
      "id": "7IQlAvN8vNQb6nL5mjNQSC",
      "is_playable": true,
      "name": "Beautiful Heartbeat - Deorro Remix",
      "popularity": 52,
      "preview_url": "https://p.scdn.co/mp3-preview/5e3adb8d3520a5e2115da96e48945a9965a07d7d",
      "track_number": 3,
      "type": "track",
      "uri": "spotify:track:7IQlAvN8vNQb6nL5mjNQSC"
    }
  ],
  "total": 50,
  "limit": 10,
  "offset": 5,
  "href": "https://api.spotify.com/v1/me/top/tracks?limit=10&offset=5",
  "previous": null,
  "next": "https://api.spotify.com/v1/me/top/tracks?limit=10&offset=15"
}