{
  "artists": {
    "href": "https://api.spotify.com/v1/search?query=Muse&type=artist&market=US&offset=5&limit=10",
    "items": [
      {
        "external_urls": {
          "spotify": "https://open.spotify.com/artist/5l8lZmnKzCAUKKtNZMzbVO"
        },
        "followers": {
          "href": null,
          "total": 2
        },
        "genres": [],
        "href": "https://api.spotify.com/v1/artists/5l8lZmnKzCAUKKtNZMzbVO",
        "id": "5l8lZmnKzCAUKKtNZMzbVO",
        "images": [],
        "name": "Muse And The Forgetting",
        "popularity": 17,
        "type": "artist",
        "uri": "spotify:artist:5l8lZmnKzCAUKKtNZMzbVO"
      },
      {
        "external_urls": {
          "spotify": "https://open.spotify.com/artist/4L6i1I6tFpc1bKui5coGme"
        },
        "followers": {
          "href": null,
          "total": 5072
        },
        "genres": [],
        "href": "https://api.spotify.com/v1/artists/4L6i1I6tFpc1bKui5coGme",
        "id": "4L6i1I6tFpc1bKui5coGme",
        "images": [
          {
            "height": 640,
            "url": "https://i.scdn.co/image/7d1b61d330e0e80cb836e5b2a33783a5d021009e",
            "width": 640
          },
          {
            "height": 300,
            "url": "https://i.scdn.co/image/48fc330ca901fb7a6c9356f4402b380317de09c5",
            "width": 300
          },
          {
            "height": 64,
            "url": "https://i.scdn.co/image/ee6cc6264de5e53f6ff58e78de206bb7b0399170",
            "width": 64
          }
        ],
        "name": "Muse",
        "popularity": 9,
        "type": "artist",
        "uri": "spotify:artist:4L6i1I6tFpc1bKui5coGme"
      },
      {
        "external_urls": {
          "spotify": "https://open.spotify.com/artist/0oYf9u7u00PBfFUDY6B00U"
        },
        "followers": {
          "href": null,
          "total": 10
        },
        "genres": [],
        "href": "https://api.spotify.com/v1/artists/0oYf9u7u00PBfFUDY6B00U",
        "id": "0oYf9u7u00PBfFUDY6B00U",
        "images": [],
        "name": "M.U.S.E.",
        "popularity": 0,
        "type": "artist",
        "uri": "spotify:artist:0oYf9u7u00PBfFUDY6B00U"
      },
      {
        "external_urls": {
          "spotify": "https://open.spotify.com/artist/3TN2e4aym8jdMv7uxWuMa5"
        },
        "followers": {
          "href": null,
          "total": 1
        },
        "genres": [],
        "href": "https://api.spotify.com/v1/artists/3TN2e4aym8jdMv7uxWuMa5",
        "id": "3TN2e4aym8jdMv7uxWuMa5",
        "images": [],
        "name": "MUSE",
        "popularity": 0,
        "type": "artist",
        "uri": "spotify:artist:3TN2e4aym8jdMv7uxWuMa5"
      },
      {
        "external_urls": {
          "spotify": "https://open.spotify.com/artist/1zFNYw5kgA7UEKWqNHf1Et"
        },
        "followers": {
          "href": null,
          "total": 1613
        },
        "genres": [
          "alternative dance"
        ],
        "href": "https://api.spotify.com/v1/artists/1zFNYw5kgA7UEKWqNHf1Et",
        "id": "1zFNYw5kgA7UEKWqNHf1Et",
        "images": [
          {
            "height": 640,
            "url": "https://i.scdn.co/image/37b8c747761d4e769f50cafe0cfac5e5699d11c4",
            "width": 640
          },
          {
            "height": 300,
            "url": "https://i.scdn.co/image/1dbe9563251b3a2411a08e116214ecdc72ea5d36",
            "width": 300
          },
          {
            "height": 64,
            "url": "https://i.scdn.co/image/019776540e398dae278322f9f030f36afb0614d2",
            "width": 64
          }
        ],
        "name": "Dangerous Muse",
        "popularity": 15,
        "type": "artist",
        "uri": "spotify:artist:1zFNYw5kgA7UEKWqNHf1Et"
      },
      {
        "external_urls": {
          "spotify": "https://open.spotify.com/artist/3uIGREwbP57eNOtcol8yrC"
        },
        "followers": {
          "href": null,
          "total": 269
        },
        "genres": [
          "harp",
          "string folk"
        ],
        "href": "https://api.spotify.com/v1/artists/3uIGREwbP57eNOtcol8yrC",
        "id": "3uIGREwbP57eNOtcol8yrC",
        "images": [
          {
            "height": 640,
            "url": "https://i.scdn.co/image/16dced42853c07db90950f915a6eb22536524afe",
            "width": 640
          },
          {
            "height": 300,
            "url": "https://i.scdn.co/image/30ce043bb61aac6a6acf393d0ed7a0a9caee6632",
            "width": 300
          },
          {
            "height": 64,
            "url": "https://i.scdn.co/image/eff847a916889ece5f533297765824aac48124a6",
            "width": 64
          }
        ],
        "name": "Celtic Muse",
        "popularity": 10,
        "type": "artist",
        "uri": "spotify:artist:3uIGREwbP57eNOtcol8yrC"
      },
      {
        "external_urls": {
          "spotify": "https://open.spotify.com/artist/7dwv5d4pNWa18YFMiXZiFi"
        },
        "followers": {
          "href": null,
          "total": 63
        },
        "genres": [],
        "href": "https://api.spotify.com/v1/artists/7dwv5d4pNWa18YFMiXZiFi",
        "id": "7dwv5d4pNWa18YFMiXZiFi",
        "images": [
          {
            "height": 640,
            "url": "https://i.scdn.co/image/44d67cbfdf8f10a4e55ac7882ba671386851826a",
            "width": 640
          },
          {
            "height": 300,
            "url": "https://i.scdn.co/image/8ca06c9c19faaaa05324d7acbd5b722b6694c269",
            "width": 300
          },
          {
            "height": 64,
            "url": "https://i.scdn.co/image/3ed91125d8a69a1919a361abd1cffc22dd8b3724",
            "width": 64
          }
        ],
        "name": "The Muse Maker",
        "popularity": 12,
        "type": "artist",
        "uri": "spotify:artist:7dwv5d4pNWa18YFMiXZiFi"
      },
      {
        "external_urls": {
          "spotify": "https://open.spotify.com/artist/4nxsiEZEqHdOZIcx96h28q"
        },
        "followers": {
          "href": null,
          "total": 126
        },
        "genres": [],
        "href": "https://api.spotify.com/v1/artists/4nxsiEZEqHdOZIcx96h28q",
        "id": "4nxsiEZEqHdOZIcx96h28q",
        "images": [
          {
            "height": 640,
            "url": "https://i.scdn.co/image/ece4bf99a19ecb898a5484c45605c55da9afa32f",
            "width": 640
          },
          {
            "height": 300,
            "url": "https://i.scdn.co/image/fa3bd8dd647837bdd35cda575d5b67f79b8d780a",
            "width": 300
          },
          {
            "height": 64,
            "url": "https://i.scdn.co/image/d76ad8fd6a7814d3369e775a8d649df5b8581e49",
            "width": 64
          }
        ],
        "name": "Workout Muse",
        "popularity": 4,
        "type": "artist",
        "uri": "spotify:artist:4nxsiEZEqHdOZIcx96h28q"
      },
      {
        "external_urls": {
          "spotify": "https://open.spotify.com/artist/2vh427vhmYQWKFzFFUG0tZ"
        },
        "followers": {
          "href": null,
          "total": 7
        },
        "genres": [],
        "href": "https://api.spotify.com/v1/artists/2vh427vhmYQWKFzFFUG0tZ",
        "id": "2vh427vhmYQWKFzFFUG0tZ",
        "images": [
          {
            "height": 640,
            "url": "https://i.scdn.co/image/ca99cfde3b96ab80bc578ad82cf729c08bc5cc22",
            "width": 640
          },
          {
            "height": 300,
            "url": "https://i.scdn.co/image/88d6fd560784caf9eed6efeafa0070688341687e",
            "width": 300
          },
          {
            "height": 64,
            "url": "https://i.scdn.co/image/a70dfedbb4b89cdf7864cd2cfc0c8b567faaf515",
            "width": 64
          }
        ],
        "name": "MaddRegaeles Muse",
        "popularity": 4,
        "type": "artist",
        "uri": "spotify:artist:2vh427vhmYQWKFzFFUG0tZ"
      },
      {
        "external_urls": {
          "spotify": "https://open.spotify.com/artist/2RLgQST3UuvyraOMj04JXe"
        },
        "followers": {
          "href": null,
          "total": 78
        },
        "genres": [],
        "href": "https://api.spotify.com/v1/artists/2RLgQST3UuvyraOMj04JXe",
        "id": "2RLgQST3UuvyraOMj04JXe",
        "images": [
          {
            "height": 640,
            "url": "https://i.scdn.co/image/b9087c6262aca40d174863fa8b891d1229d19e3a",
            "width": 640
          },
          {
            "height": 300,
            "url": "https://i.scdn.co/image/87a8379290dc83f6b8444376fee83ca0deb6b79b",
            "width": 300
          },
          {
            "height": 64,
            "url": "https://i.scdn.co/image/6b7d8f17bf95863f0672cc1c117c1466a890bf7e",
            "width": 64
          }
        ],
        "name": "Muse Girls",
        "popularity": 14,
        "type": "artist",
        "uri": "spotify:artist:2RLgQST3UuvyraOMj04JXe"
      }
    ],
    "limit": 10,
    "next": "https://api.spotify.com/v1/search?query=Muse&type=artist&market=US&offset=15&limit=10",
    "offset": 5,
    "previous": "https://api.spotify.com/v1/search?query=Muse&type=artist&market=US&offset=0&limit=10",
    "total": 171
  }
}