{
  "shows": {
    "href": "https://api.spotify.com/v1/search?query=Muse&type=show&market=US&offset=5&limit=10",
    "items": [
      {
        "available_markets": [
          "AD",
          "AE",
          "AR",
          "AT",
          "AU",
          "BE",
          "BG",
          "BH",
          "BO",
          "BR",
          "CA",
          "CH",
          "CL",
          "CO",
          "CR",
          "CY",
          "CZ",
          "DE",
          "DK",
          "DO",
          "DZ",
          "EC",
          "EE",
          "ES",
          "FI",
          "FR",
          "GB",
          "GR",
          "GT",
          "HK",
          "HN",
          "HU",
          "ID",
          "IE",
          "IL",
          "IN",
          "IS",
          "IT",
          "JO",
          "JP",
          "KW",
          "LB",
          "LI",
          "LT",
          "LU",
          "LV",
          "MA",
          "MC",
          "MT",
          "MX",
          "MY",
          "NI",
          "NL",
          "NO",
          "NZ",
          "OM",
          "PA",
          "PE",
          "PH",
          "PL",
          "PS",
          "PT",
          "PY",
          "QA",
          "RO",
          "SE",
          "SG",
          "SK",
          "SV",
          "TH",
          "TN",
          "TR",
          "TW",
          "US",
          "UY",
          "VN",
          "ZA"
        ],
        "copyrights": [],
        "description": "Jonathan is the author of Welcome to the D-List and co-host of the Mutant Musings podcast right here at Geekade. His geek-tastic girlfriend, Patti, is the other co-host of the Mutant Musings podcast. While they both have mild-mannered day-jobs, they exist solely to share their geek-ery with you, their fellow geeks.",
        "explicit": true,
        "external_urls": {
          "spotify": "https://open.spotify.com/show/1XEGKpIeSkJs5Y0kWSAxqL"
        },
        "href": "https://api.spotify.com/v1/shows/1XEGKpIeSkJs5Y0kWSAxqL",
        "id": "1XEGKpIeSkJs5Y0kWSAxqL",
        "images": [
          {
            "height": 640,
            "url": "https://i.scdn.co/image/9bb91b6baafcd65a141928daec7cbc76096d8e95",
            "width": 640
          },
          {
            "height": 300,
            "url": "https://i.scdn.co/image/e12f795e991a2279c5be015c0be13deacf21e49e",
            "width": 300
          },
          {
            "height": 64,
            "url": "https://i.scdn.co/image/dce9ba5697f91ba689143cb83cc806c6d59cc221",
            "width": 64
          }
        ],
        "is_externally_hosted": false,
        "languages": [
          "en-US"
        ],
        "media_type": "audio",
        "name": "Mutant Musings",
        "publisher": "Geekade",
        "type": "show",
        "uri": "spotify:show:1XEGKpIeSkJs5Y0kWSAxqL"
      },
      {
        "available_markets": [
          "AD",
          "AE",
          "AR",
          "AT",
          "AU",
          "BE",
          "BG",
          "BH",
          "BO",
          "BR",
          "CA",
          "CH",
          "CL",
          "CO",
          "CR",
          "CY",
          "CZ",
          "DE",
          "DK",
          "DO",
          "DZ",
          "EC",
          "EE",
          "ES",
          "FI",
          "FR",
          "GB",
          "GR",
          "GT",
          "HK",
          "HN",
          "HU",
          "ID",
          "IE",
          "IL",
          "IN",
          "IS",
          "IT",
          "JO",
          "JP",
          "KW",
          "LB",
          "LI",
          "LT",
          "LU",
          "LV",
          "MA",
          "MC",
          "MT",
          "MX",
          "MY",
          "NI",
          "NL",
          "NO",
          "NZ",
          "OM",
          "PA",
          "PE",
          "PH",
          "PL",
          "PS",
          "PT",
          "PY",
          "QA",
          "RO",
          "SE",
          "SG",
          "SK",
          "SV",
          "TH",
          "TN",
          "TR",
          "TW",
          "US",
          "UY",
          "VN",
          "ZA"
        ],
        "copyrights": [],
        "description": "Museum Confidential is a behind-the-scenes look at museums hosted by Jeff Martin of Philbrook Museum of Art and produced by Scott Gregory with Public Radio Tulsa. New episodes every two weeks.",
        "explicit": false,
        "external_urls": {
          "spotify": "https://open.spotify.com/show/2LPg85v8YI3fGnbM1AMznj"
        },
        "href": "https://api.spotify.com/v1/shows/2LPg85v8YI3fGnbM1AMznj",
        "id": "2LPg85v8YI3fGnbM1AMznj",
        "images": [
          {
            "height": 640,
            "url": "https://i.scdn.co/image/f455f5eb805eef9d17fa564f58576c14088b758a",
            "width": 640
          },
          {
            "height": 300,
            "url": "https://i.scdn.co/image/0362e77f3f3dfee8820f188add7ba4207b11cc66",
            "width": 300
          },
          {
            "height": 64,
            "url": "https://i.scdn.co/image/4dfa4571c41e6a54d5440ed13c6ffdc90a46b098",
            "width": 64
          }
        ],
        "is_externally_hosted": false,
        "languages": [
          "en"
        ],
        "media_type": "audio",
        "name": "Museum Confidential",
        "publisher": "Philbrook Museum of Art",
        "type": "show",
        "uri": "spotify:show:2LPg85v8YI3fGnbM1AMznj"
      },
      {
        "available_markets": [
          "AD",
          "AE",
          "AR",
          "AT",
          "AU",
          "BE",
          "BG",
          "BH",
          "BO",
          "BR",
          "CA",
          "CH",
          "CL",
          "CO",
          "CR",
          "CY",
          "CZ",
          "DE",
          "DK",
          "DO",
          "DZ",
          "EC",
          "EE",
          "ES",
          "FI",
          "FR",
          "GB",
          "GR",
          "GT",
          "HK",
          "HN",
          "HU",
          "ID",
          "IE",
          "IL",
          "IN",
          "IS",
          "IT",
          "JO",
          "JP",
          "KW",
          "LB",
          "LI",
          "LT",
          "LU",
          "LV",
          "MA",
          "MC",
          "MT",
          "MX",
          "MY",
          "NI",
          "NL",
          "NO",
          "NZ",
          "OM",
          "PA",
          "PE",
          "PH",
          "PL",
          "PS",
          "PT",
          "PY",
          "QA",
          "RO",
          "SE",
          "SG",
          "SK",
          "SV",
          "TH",
          "TN",
          "TR",
          "TW",
          "US",
          "UY",
          "VN",
          "ZA"
        ],
        "copyrights": [],
        "description": "A basketball card podcast that discusses the hobby's past, present, and future.",
        "explicit": false,
        "external_urls": {
          "spotify": "https://open.spotify.com/show/6yFmqVC8vWCllUmwlryg1K"
        },
        "href": "https://api.spotify.com/v1/shows/6yFmqVC8vWCllUmwlryg1K",
        "id": "6yFmqVC8vWCllUmwlryg1K",
        "images": [
          {
            "height": 640,
            "url": "https://i.scdn.co/image/c6a3fe0a49e0d719f55f9acab73d086c2950686d",
            "width": 640
          },
          {
            "height": 300,
            "url": "https://i.scdn.co/image/14c219212879edbda2219ca5d36ea3c42a6415ee",
            "width": 300
          },
          {
            "height": 64,
            "url": "https://i.scdn.co/image/4204724300feeadfb527d9b928b6c9f7011c79e6",
            "width": 64
          }
        ],
        "is_externally_hosted": false,
        "languages": [
          "en"
        ],
        "media_type": "audio",
        "name": "Wax Museum: A Basketball Card Podcast",
        "publisher": "waxmuseum",
        "type": "show",
        "uri": "spotify:show:6yFmqVC8vWCllUmwlryg1K"
      },
      {
        "available_markets": [
          "AD",
          "AE",
          "AR",
          "AT",
          "AU",
          "BE",
          "BG",
          "BH",
          "BO",
          "BR",
          "CA",
          "CH",
          "CL",
          "CO",
          "CR",
          "CY",
          "CZ",
          "DE",
          "DK",
          "DO",
          "DZ",
          "EC",
          "EE",
          "ES",
          "FI",
          "FR",
          "GB",
          "GR",
          "GT",
          "HK",
          "HN",
          "HU",
          "ID",
          "IE",
          "IL",
          "IN",
          "IS",
          "IT",
          "JO",
          "JP",
          "KW",
          "LB",
          "LI",
          "LT",
          "LU",
          "LV",
          "MA",
          "MC",
          "MT",
          "MX",
          "MY",
          "NI",
          "NL",
          "NO",
          "NZ",
          "OM",
          "PA",
          "PE",
          "PH",
          "PL",
          "PS",
          "PT",
          "PY",
          "QA",
          "RO",
          "SE",
          "SG",
          "SK",
          "SV",
          "TH",
          "TN",
          "TR",
          "TW",
          "US",
          "UY",
          "VN",
          "ZA"
        ],
        "copyrights": [],
        "description": "A Podcast for the Progressive Museum",
        "explicit": false,
        "external_urls": {
          "spotify": "https://open.spotify.com/show/6W06fQHuhvJpnxJS8UHJqR"
        },
        "href": "https://api.spotify.com/v1/shows/6W06fQHuhvJpnxJS8UHJqR",
        "id": "6W06fQHuhvJpnxJS8UHJqR",
        "images": [
          {
            "height": 640,
            "url": "https://i.scdn.co/image/0b84d89fed3e7763f379aaba4838daebec0f7286",
            "width": 640
          },
          {
            "height": 300,
            "url": "https://i.scdn.co/image/10121c4f7a3ad07556dec768247ffe66c1bebadc",
            "width": 300
          },
          {
            "height": 64,
            "url": "https://i.scdn.co/image/fd82c341503e25f8f09cbe8a5ea23d0044bc92fa",
            "width": 64
          }
        ],
        "is_externally_hosted": false,
        "languages": [
          "en"
        ],
        "media_type": "audio",
        "name": "Museopunks",
        "publisher": "Museopunks",
        "type": "show",
        "uri": "spotify:show:6W06fQHuhvJpnxJS8UHJqR"
      },
      {
        "available_markets": [
          "AD",
          "AE",
          "AR",
          "AT",
          "AU",
          "BE",
          "BG",
          "BH",
          "BO",
          "BR",
          "CA",
          "CH",
          "CL",
          "CO",
          "CR",
          "CY",
          "CZ",
          "DE",
          "DK",
          "DO",
          "DZ",
          "EC",
          "EE",
          "ES",
          "FI",
          "FR",
          "GB",
          "GR",
          "GT",
          "HK",
          "HN",
          "HU",
          "ID",
          "IE",
          "IL",
          "IN",
          "IS",
          "IT",
          "JO",
          "JP",
          "KW",
          "LB",
          "LI",
          "LT",
          "LU",
          "LV",
          "MA",
          "MC",
          "MT",
          "MX",
          "MY",
          "NI",
          "NL",
          "NO",
          "NZ",
          "OM",
          "PA",
          "PE",
          "PH",
          "PL",
          "PS",
          "PT",
          "PY",
          "QA",
          "RO",
          "SE",
          "SG",
          "SK",
          "SV",
          "TH",
          "TN",
          "TR",
          "TW",
          "US",
          "UY",
          "VN",
          "ZA"
        ],
        "copyrights": [],
        "description": "O programa Saber Museu, é uma iniciativa que consiste na integração de diferentes esforços já empreendidos pelo Ibram para a capacitação e a qualificação dirigidas à área museológica. O programa é a resposta do Ibram à demanda do campo dos museus de continuidade e aperfeiçoamento de cursos, oficinas, materiais instrucionais e publicações oferecidos desde 2003. O Saber Museu contempla uma rica diversidade de temas relacionados ao campo museal e lança mão de um conjunto variado de materiais instrucionais disponíveis em diferentes plataformas virtuais.",
        "explicit": false,
        "external_urls": {
          "spotify": "https://open.spotify.com/show/0mI9t3qDLjuAdTycXF6JNg"
        },
        "href": "https://api.spotify.com/v1/shows/0mI9t3qDLjuAdTycXF6JNg",
        "id": "0mI9t3qDLjuAdTycXF6JNg",
        "images": [
          {
            "height": 640,
            "url": "https://i.scdn.co/image/57d0864e82a221828346ec00deaa08146481b3b0",
            "width": 640
          },
          {
            "height": 300,
            "url": "https://i.scdn.co/image/00d8030f056258b4a98096ecb11668dc8680252c",
            "width": 300
          },
          {
            "height": 64,
            "url": "https://i.scdn.co/image/0844f934c45a2f531c1a457cac4e1dc27fe6dae7",
            "width": 64
          }
        ],
        "is_externally_hosted": false,
        "languages": [
          "pt-BR"
        ],
        "media_type": "audio",
        "name": "Saber Museu",
        "publisher": "Ibram - Saber Museu",
        "type": "show",
        "uri": "spotify:show:0mI9t3qDLjuAdTycXF6JNg"
      },
      {
        "available_markets": [
          "AD",
          "AE",
          "AR",
          "AT",
          "AU",
          "BE",
          "BG",
          "BH",
          "BO",
          "BR",
          "CA",
          "CH",
          "CL",
          "CO",
          "CR",
          "CY",
          "CZ",
          "DE",
          "DK",
          "DO",
          "DZ",
          "EC",
          "EE",
          "ES",
          "FI",
          "FR",
          "GB",
          "GR",
          "GT",
          "HK",
          "HN",
          "HU",
          "ID",
          "IE",
          "IL",
          "IN",
          "IS",
          "IT",
          "JO",
          "JP",
          "KW",
          "LB",
          "LI",
          "LT",
          "LU",
          "LV",
          "MA",
          "MC",
          "MT",
          "MX",
          "MY",
          "NI",
          "NL",
          "NO",
          "NZ",
          "OM",
          "PA",
          "PE",
          "PH",
          "PL",
          "PS",
          "PT",
          "PY",
          "QA",
          "RO",
          "SE",
          "SG",
          "SK",
          "SV",
          "TH",
          "TN",
          "TR",
          "TW",
          "US",
          "UY",
          "VN",
          "ZA"
        ],
        "copyrights": [],
        "description": "A yogini and a rocker fell in love. She inspired him with a passion for all things alive. Wandering with open eyes and an open heart, living free and loving hard. He inspired her with his strength and courage. To be unabashedly true to who we are, to live loud and explore, to inspire the world to live and love with his song. Together they imagined, designed, and created the life they wanted to live. Now they bring these offerings to you. Join us on this journey of life, love, music, and yoga.",
        "explicit": true,
        "external_urls": {
          "spotify": "https://open.spotify.com/show/6H7d5tCc3lr7aygfbA6D7x"
        },
        "href": "https://api.spotify.com/v1/shows/6H7d5tCc3lr7aygfbA6D7x",
        "id": "6H7d5tCc3lr7aygfbA6D7x",
        "images": [
          {
            "height": 640,
            "url": "https://i.scdn.co/image/ed5edd9cc4406c7094b9259768625867a2da4831",
            "width": 640
          },
          {
            "height": 300,
            "url": "https://i.scdn.co/image/4e2c745f683f357bea1dd83e3dac91767bfa5455",
            "width": 300
          },
          {
            "height": 64,
            "url": "https://i.scdn.co/image/c1990acc65405d4d27e8ce89e0091d41ca79dd85",
            "width": 64
          }
        ],
        "is_externally_hosted": false,
        "languages": [
          "en"
        ],
        "media_type": "audio",
        "name": "Rebel & Muse",
        "publisher": "Rebel And Muse ",
        "type": "show",
        "uri": "spotify:show:6H7d5tCc3lr7aygfbA6D7x"
      },
      {
        "available_markets": [
          "AD",
          "AE",
          "AR",
          "AT",
          "AU",
          "BE",
          "BG",
          "BH",
          "BO",
          "BR",
          "CA",
          "CH",
          "CL",
          "CO",
          "CR",
          "CY",
          "CZ",
          "DE",
          "DK",
          "DO",
          "DZ",
          "EC",
          "EE",
          "ES",
          "FI",
          "FR",
          "GB",
          "GR",
          "GT",
          "HK",
          "HN",
          "HU",
          "ID",
          "IE",
          "IL",
          "IN",
          "IS",
          "IT",
          "JO",
          "JP",
          "KW",
          "LB",
          "LI",
          "LT",
          "LU",
          "LV",
          "MA",
          "MC",
          "MT",
          "MX",
          "MY",
          "NI",
          "NL",
          "NO",
          "NZ",
          "OM",
          "PA",
          "PE",
          "PH",
          "PL",
          "PS",
          "PT",
          "PY",
          "QA",
          "RO",
          "SE",
          "SG",
          "SK",
          "SV",
          "TH",
          "TN",
          "TR",
          "TW",
          "US",
          "UY",
          "VN",
          "ZA"
        ],
        "copyrights": [],
        "description": "The Rubin Museum of Art is dedicated to the collection, display, and preservation of the art and cultures of the Himalayas, India and neighboring regions, with a permanent collection focused particularly on Tibetan art.",
        "explicit": false,
        "external_urls": {
          "spotify": "https://open.spotify.com/show/7maP02nsxvmJt5oolDereq"
        },
        "href": "https://api.spotify.com/v1/shows/7maP02nsxvmJt5oolDereq",
        "id": "7maP02nsxvmJt5oolDereq",
        "images": [
          {
            "height": 640,
            "url": "https://i.scdn.co/image/d6632e594965fa310b014f1b00e5dd336e927acb",
            "width": 640
          },
          {
            "height": 300,
            "url": "https://i.scdn.co/image/95b4b284e4f87513eea5576cd95ca69c93fed8ad",
            "width": 300
          },
          {
            "height": 64,
            "url": "https://i.scdn.co/image/95c719ea880fd7e278089d63a6b1cfe1dd53a303",
            "width": 64
          }
        ],
        "is_externally_hosted": false,
        "languages": [
          "en"
        ],
        "media_type": "audio",
        "name": "The Rubin Museum of Art",
        "publisher": "The Rubin Museum of Art",
        "type": "show",
        "uri": "spotify:show:7maP02nsxvmJt5oolDereq"
      },
      {
        "available_markets": [
          "AD",
          "AE",
          "AR",
          "AT",
          "AU",
          "BE",
          "BG",
          "BH",
          "BO",
          "BR",
          "CA",
          "CH",
          "CL",
          "CO",
          "CR",
          "CY",
          "CZ",
          "DE",
          "DK",
          "DO",
          "DZ",
          "EC",
          "EE",
          "ES",
          "FI",
          "FR",
          "GB",
          "GR",
          "GT",
          "HK",
          "HN",
          "HU",
          "ID",
          "IE",
          "IL",
          "IN",
          "IS",
          "IT",
          "JO",
          "JP",
          "KW",
          "LB",
          "LI",
          "LT",
          "LU",
          "LV",
          "MA",
          "MC",
          "MT",
          "MX",
          "MY",
          "NI",
          "NL",
          "NO",
          "NZ",
          "OM",
          "PA",
          "PE",
          "PH",
          "PL",
          "PS",
          "PT",
          "PY",
          "QA",
          "RO",
          "SE",
          "SG",
          "SK",
          "SV",
          "TH",
          "TN",
          "TR",
          "TW",
          "US",
          "UY",
          "VN",
          "ZA"
        ],
        "copyrights": [],
        "description": "Join Catholic Musings in praying the fourteen Stations of the Cross.",
        "explicit": false,
        "external_urls": {
          "spotify": "https://open.spotify.com/show/6mTSnTgJR6jBM8hgPVijBg"
        },
        "href": "https://api.spotify.com/v1/shows/6mTSnTgJR6jBM8hgPVijBg",
        "id": "6mTSnTgJR6jBM8hgPVijBg",
        "images": [
          {
            "height": 640,
            "url": "https://i.scdn.co/image/f5c9763cd912644c411a6c5751acee2ca6ed597a",
            "width": 640
          },
          {
            "height": 300,
            "url": "https://i.scdn.co/image/cebbfb1467d93efc6634071ffb197e4ffd9c99d2",
            "width": 300
          },
          {
            "height": 64,
            "url": "https://i.scdn.co/image/3bb23cfabb65c35e7ce09cfed0724b038950e543",
            "width": 64
          }
        ],
        "is_externally_hosted": false,
        "languages": [
          "en-US"
        ],
        "media_type": "audio",
        "name": "Stations of the Cross with Catholic Musings",
        "publisher": "Catholic Musings",
        "type": "show",
        "uri": "spotify:show:6mTSnTgJR6jBM8hgPVijBg"
      },
      {
        "available_markets": [
          "AD",
          "AE",
          "AR",
          "AT",
          "AU",
          "BE",
          "BG",
          "BH",
          "BO",
          "BR",
          "CA",
          "CH",
          "CL",
          "CO",
          "CR",
          "CY",
          "CZ",
          "DE",
          "DK",
          "DO",
          "DZ",
          "EC",
          "EE",
          "ES",
          "FI",
          "FR",
          "GB",
          "GR",
          "GT",
          "HK",
          "HN",
          "HU",
          "ID",
          "IE",
          "IL",
          "IN",
          "IS",
          "IT",
          "JO",
          "JP",
          "KW",
          "LB",
          "LI",
          "LT",
          "LU",
          "LV",
          "MA",
          "MC",
          "MT",
          "MX",
          "MY",
          "NI",
          "NL",
          "NO",
          "NZ",
          "OM",
          "PA",
          "PE",
          "PH",
          "PL",
          "PS",
          "PT",
          "PY",
          "QA",
          "RO",
          "SE",
          "SG",
          "SK",
          "SV",
          "TH",
          "TN",
          "TR",
          "TW",
          "US",
          "UY",
          "VN",
          "ZA"
        ],
        "copyrights": [],
        "description": "A podcast on Norse Heathenry. Discussions surround the Old Gods and Goddesses of Northern Europe and the spirituality surrounding the indigenous peoples of pre-medieval Scandinavia.   http://www.youtube.com/c/MidgardMusings  https://www.paypal.me/metalheadalliance  http://ko-fi.com/midgardmusings  https://www.facebook.com/MidgardMusingsTN/  https://www.patreon.com/midgardmusings  https://teespring.com/stores/midgard-musings-store  https://www.redbubble.com/people/midgardmusings Support this podcast: https://anchor.fm/midgardmusings/support",
        "explicit": false,
        "external_urls": {
          "spotify": "https://open.spotify.com/show/1SjbH4P08OBO9h9gsQ6R4G"
        },
        "href": "https://api.spotify.com/v1/shows/1SjbH4P08OBO9h9gsQ6R4G",
        "id": "1SjbH4P08OBO9h9gsQ6R4G",
        "images": [
          {
            "height": 640,
            "url": "https://i.scdn.co/image/95cf9eab7bf2911f1788f70bf686d27ce6ed2369",
            "width": 640
          },
          {
            "height": 300,
            "url": "https://i.scdn.co/image/e9f29e0629ca49ca7481771f32ab44f4205ed94d",
            "width": 300
          },
          {
            "height": 64,
            "url": "https://i.scdn.co/image/ad17c92fb773d504c116faa85d3c65ea9acec7e2",
            "width": 64
          }
        ],
        "is_externally_hosted": false,
        "languages": [
          "en-US"
        ],
        "media_type": "audio",
        "name": "Midgard Musings ",
        "publisher": "Jesse Stilwagen",
        "type": "show",
        "uri": "spotify:show:1SjbH4P08OBO9h9gsQ6R4G"
      },
      {
        "available_markets": [
          "AD",
          "AE",
          "AR",
          "AT",
          "AU",
          "BE",
          "BG",
          "BH",
          "BO",
          "BR",
          "CA",
          "CH",
          "CL",
          "CO",
          "CR",
          "CY",
          "CZ",
          "DE",
          "DK",
          "DO",
          "DZ",
          "EC",
          "EE",
          "ES",
          "FI",
          "FR",
          "GB",
          "GR",
          "GT",
          "HK",
          "HN",
          "HU",
          "ID",
          "IE",
          "IL",
          "IN",
          "IS",
          "IT",
          "JO",
          "JP",
          "KW",
          "LB",
          "LI",
          "LT",
          "LU",
          "LV",
          "MA",
          "MC",
          "MT",
          "MX",
          "MY",
          "NI",
          "NL",
          "NO",
          "NZ",
          "OM",
          "PA",
          "PE",
          "PH",
          "PL",
          "PS",
          "PT",
          "PY",
          "QA",
          "RO",
          "SE",
          "SG",
          "SK",
          "SV",
          "TH",
          "TN",
          "TR",
          "TW",
          "US",
          "UY",
          "VN",
          "ZA"
        ],
        "copyrights": [],
        "description": "Brindarle una experiencia auditiva a los visitantes de los Museos del Instituto Estatal de la Cultura de Guanajuato  ",
        "explicit": true,
        "external_urls": {
          "spotify": "https://open.spotify.com/show/7v9lBX1tHCKRoaVtRngosw"
        },
        "href": "https://api.spotify.com/v1/shows/7v9lBX1tHCKRoaVtRngosw",
        "id": "7v9lBX1tHCKRoaVtRngosw",
        "images": [
          {
            "height": 640,
            "url": "https://i.scdn.co/image/528491d124962019c39967c13875ca8dbdfa0f4b",
            "width": 640
          },
          {
            "height": 300,
            "url": "https://i.scdn.co/image/b749ab58e41dce9329e4bcc2b4963d4ce38b178f",
            "width": 300
          },
          {
            "height": 64,
            "url": "https://i.scdn.co/image/0c09a0eef1e717c092ba888986c1f437a39b4e56",
            "width": 64
          }
        ],
        "is_externally_hosted": false,
        "languages": [
          "es"
        ],
        "media_type": "audio",
        "name": "Exposiciones temporales Museos IEC",
        "publisher": "Museos Guanajuato",
        "type": "show",
        "uri": "spotify:show:7v9lBX1tHCKRoaVtRngosw"
      }
    ],
    "limit": 10,
    "next": "https://api.spotify.com/v1/search?query=Muse&type=show&market=US&offset=15&limit=10",
    "offset": 5,
    "previous": "https://api.spotify.com/v1/search?query=Muse&type=show&market=US&offset=0&limit=10",
    "total": 2101
  }
}
